%YAML 1.1
%TAG !u! tag:unity3d.com,2011:
--- !u!114 &1930315939
MonoBehaviour:
  m_ObjectHideFlags: 0
  m_CorrespondingSourceObject: {fileID: 0}
  m_PrefabInstance: {fileID: 0}
  m_PrefabAsset: {fileID: 0}
  m_GameObject: {fileID: 1110296453835777166}
  m_Enabled: 1
  m_EditorHideFlags: 0
  m_Script: {fileID: 11500000, guid: c33b3438dc0ded54d943e8bc061a893c, type: 3}
  m_Name: 
  m_EditorClassIdentifier: 
  voxelSize: 0.1
  voxelCountPerSide: 10
  colorsForward: 
  colorsBack: 
  colorsRight: 
  colorsLeft: 
--- !u!64 &1930315937
MeshCollider:
  m_ObjectHideFlags: 0
  m_CorrespondingSourceObject: {fileID: 0}
  m_PrefabInstance: {fileID: 0}
  m_PrefabAsset: {fileID: 0}
  m_GameObject: {fileID: 8279123948061498455}
  m_Material: {fileID: 0}
  m_IsTrigger: 0
  m_Enabled: 1
  serializedVersion: 4
  m_Convex: 0
  m_CookingOptions: 30
  m_Mesh: {fileID: -2432090755550338912, guid: c1c8ed9ea8bb85b4389f4d54c3c3354f, type: 3}
--- !u!1001 &264016295870912991
PrefabInstance:
  m_ObjectHideFlags: 0
  serializedVersion: 2
  m_Modification:
    m_TransformParent: {fileID: 0}
    m_Modifications:
    - target: {fileID: -8679921383154817045, guid: c1c8ed9ea8bb85b4389f4d54c3c3354f, type: 3}
      propertyPath: m_RootOrder
      value: 0
      objectReference: {fileID: 0}
    - target: {fileID: -8679921383154817045, guid: c1c8ed9ea8bb85b4389f4d54c3c3354f, type: 3}
      propertyPath: m_LocalPosition.x
      value: -0
      objectReference: {fileID: 0}
    - target: {fileID: -8679921383154817045, guid: c1c8ed9ea8bb85b4389f4d54c3c3354f, type: 3}
      propertyPath: m_LocalPosition.y
      value: 0
      objectReference: {fileID: 0}
    - target: {fileID: -8679921383154817045, guid: c1c8ed9ea8bb85b4389f4d54c3c3354f, type: 3}
      propertyPath: m_LocalPosition.z
      value: 0
      objectReference: {fileID: 0}
    - target: {fileID: -8679921383154817045, guid: c1c8ed9ea8bb85b4389f4d54c3c3354f, type: 3}
      propertyPath: m_LocalRotation.w
      value: 1
      objectReference: {fileID: 0}
    - target: {fileID: -8679921383154817045, guid: c1c8ed9ea8bb85b4389f4d54c3c3354f, type: 3}
      propertyPath: m_LocalRotation.x
      value: 0
      objectReference: {fileID: 0}
    - target: {fileID: -8679921383154817045, guid: c1c8ed9ea8bb85b4389f4d54c3c3354f, type: 3}
      propertyPath: m_LocalRotation.y
      value: -0
      objectReference: {fileID: 0}
    - target: {fileID: -8679921383154817045, guid: c1c8ed9ea8bb85b4389f4d54c3c3354f, type: 3}
      propertyPath: m_LocalRotation.z
      value: -0
      objectReference: {fileID: 0}
    - target: {fileID: -8679921383154817045, guid: c1c8ed9ea8bb85b4389f4d54c3c3354f, type: 3}
      propertyPath: m_LocalEulerAnglesHint.x
      value: 0
      objectReference: {fileID: 0}
    - target: {fileID: -8679921383154817045, guid: c1c8ed9ea8bb85b4389f4d54c3c3354f, type: 3}
      propertyPath: m_LocalEulerAnglesHint.y
      value: 0
      objectReference: {fileID: 0}
    - target: {fileID: -8679921383154817045, guid: c1c8ed9ea8bb85b4389f4d54c3c3354f, type: 3}
      propertyPath: m_LocalEulerAnglesHint.z
      value: 0
      objectReference: {fileID: 0}
    - target: {fileID: 919132149155446097, guid: c1c8ed9ea8bb85b4389f4d54c3c3354f, type: 3}
      propertyPath: m_Name
      value: RoadX
      objectReference: {fileID: 0}
    m_RemovedComponents: []
  m_SourcePrefab: {fileID: 100100000, guid: c1c8ed9ea8bb85b4389f4d54c3c3354f, type: 3}
--- !u!1 &1110296453835777166 stripped
GameObject:
  m_CorrespondingSourceObject: {fileID: 919132149155446097, guid: c1c8ed9ea8bb85b4389f4d54c3c3354f, type: 3}
  m_PrefabInstance: {fileID: 264016295870912991}
  m_PrefabAsset: {fileID: 0}
--- !u!1 &8279123948061498455 stripped
GameObject:
  m_CorrespondingSourceObject: {fileID: 8164078558771037576, guid: c1c8ed9ea8bb85b4389f4d54c3c3354f, type: 3}
  m_PrefabInstance: {fileID: 264016295870912991}
  m_PrefabAsset: {fileID: 0}
