# MagicaVoxel @ Ephtracy

# group
o 

# material
mtllib Wall.mtl
usemtl palette

# normals
vn -1 0 0
vn 1 0 0
vn 0 0 1
vn 0 0 -1
vn 0 -1 0
vn 0 1 0

# texcoords
vt 0.162109 0.5
vt 0.986328 0.5

# verts
v -0.5 0 0.5
v -0.5 0 -0.5
v -0.5 0.2 0.5
v -0.5 0.2 0.2
v -0.5 0.2 -0.2
v -0.5 0.2 -0.5
v -0.5 0.8 0.2
v -0.5 0.8 -0.1
v -0.5 1 -0.1
v -0.5 1 -0.2
v -0.2 0.8 -0.1
v -0.2 0.8 -0.2
v -0.2 1 -0.1
v -0.2 1 -0.2
v 0.3 0.8 -0.1
v 0.3 0.8 -0.2
v 0.3 1 -0.1
v 0.3 1 -0.2
v -0.3 0.8 -0.1
v -0.3 0.8 -0.2
v -0.3 1 -0.1
v -0.3 1 -0.2
v 0.2 0.8 -0.1
v 0.2 0.8 -0.2
v 0.2 1 -0.1
v 0.2 1 -0.2
v 0.5 0 0.5
v 0.5 0 -0.5
v 0.5 0.2 0.5
v 0.5 0.2 0.2
v 0.5 0.2 -0.2
v 0.5 0.2 -0.5
v 0.5 0.8 0.2
v 0.5 0.8 -0.1
v 0.5 1 -0.1
v 0.5 1 -0.2
v -0.5 0 0.5
v -0.5 0.2 0.5
v 0.5 0 0.5
v 0.5 0.2 0.5
v -0.5 0.2 0.2
v -0.5 0.8 0.2
v 0.5 0.2 0.2
v 0.5 0.8 0.2
v -0.5 0.8 -0.1
v -0.5 1 -0.1
v -0.3 0.8 -0.1
v -0.3 1 -0.1
v -0.2 0.8 -0.1
v -0.2 1 -0.1
v 0.2 0.8 -0.1
v 0.2 1 -0.1
v 0.3 0.8 -0.1
v 0.3 1 -0.1
v 0.5 0.8 -0.1
v 0.5 1 -0.1
v -0.5 0.2 -0.2
v -0.5 1 -0.2
v -0.3 0.8 -0.2
v -0.3 1 -0.2
v -0.2 0.8 -0.2
v -0.2 1 -0.2
v 0.2 0.8 -0.2
v 0.2 1 -0.2
v 0.3 0.8 -0.2
v 0.3 1 -0.2
v 0.5 0.2 -0.2
v 0.5 1 -0.2
v -0.5 0 -0.5
v -0.5 0.2 -0.5
v 0.5 0 -0.5
v 0.5 0.2 -0.5
v -0.5 0 0.5
v 0.5 0 0.5
v -0.5 0 -0.5
v 0.5 0 -0.5
v -0.5 0.2 0.5
v 0.5 0.2 0.5
v -0.5 0.2 0.2
v 0.5 0.2 0.2
v -0.5 0.2 -0.2
v 0.5 0.2 -0.2
v -0.5 0.2 -0.5
v 0.5 0.2 -0.5
v -0.5 0.8 0.2
v 0.5 0.8 0.2
v -0.5 0.8 -0.1
v -0.3 0.8 -0.1
v -0.2 0.8 -0.1
v 0.2 0.8 -0.1
v 0.3 0.8 -0.1
v 0.5 0.8 -0.1
v -0.3 0.8 -0.2
v -0.2 0.8 -0.2
v 0.2 0.8 -0.2
v 0.3 0.8 -0.2
v -0.5 1 -0.1
v -0.3 1 -0.1
v -0.2 1 -0.1
v 0.2 1 -0.1
v 0.3 1 -0.1
v 0.5 1 -0.1
v -0.5 1 -0.2
v -0.3 1 -0.2
v -0.2 1 -0.2
v 0.2 1 -0.2
v 0.3 1 -0.2
v 0.5 1 -0.2

# faces
f 3/1/1 2/1/1 1/1/1
f 4/1/1 2/1/1 3/1/1
f 5/1/1 2/1/1 4/1/1
f 6/1/1 2/1/1 5/1/1
f 7/2/1 5/2/1 4/2/1
f 8/2/1 5/2/1 7/2/1
f 9/2/1 5/2/1 8/2/1
f 10/2/1 5/2/1 9/2/1
f 13/2/1 12/2/1 11/2/1
f 14/2/1 12/2/1 13/2/1
f 17/2/1 16/2/1 15/2/1
f 18/2/1 16/2/1 17/2/1
f 19/2/2 20/2/2 21/2/2
f 21/2/2 20/2/2 22/2/2
f 23/2/2 24/2/2 25/2/2
f 25/2/2 24/2/2 26/2/2
f 27/1/2 28/1/2 29/1/2
f 29/1/2 28/1/2 30/1/2
f 30/1/2 28/1/2 31/1/2
f 31/1/2 28/1/2 32/1/2
f 30/2/2 31/2/2 33/2/2
f 33/2/2 31/2/2 34/2/2
f 34/2/2 31/2/2 35/2/2
f 35/2/2 31/2/2 36/2/2
f 39/1/3 38/1/3 37/1/3
f 40/1/3 38/1/3 39/1/3
f 43/2/3 42/2/3 41/2/3
f 44/2/3 42/2/3 43/2/3
f 47/2/3 46/2/3 45/2/3
f 48/2/3 46/2/3 47/2/3
f 51/2/3 50/2/3 49/2/3
f 52/2/3 50/2/3 51/2/3
f 55/2/3 54/2/3 53/2/3
f 56/2/3 54/2/3 55/2/3
f 57/2/4 58/2/4 59/2/4
f 59/2/4 58/2/4 60/2/4
f 57/2/4 59/2/4 61/2/4
f 57/2/4 61/2/4 63/2/4
f 61/2/4 62/2/4 63/2/4
f 63/2/4 62/2/4 64/2/4
f 57/2/4 63/2/4 65/2/4
f 57/2/4 65/2/4 67/2/4
f 65/2/4 66/2/4 67/2/4
f 67/2/4 66/2/4 68/2/4
f 69/1/4 70/1/4 71/1/4
f 71/1/4 70/1/4 72/1/4
f 75/1/5 74/1/5 73/1/5
f 76/1/5 74/1/5 75/1/5
f 77/1/6 78/1/6 79/1/6
f 79/1/6 78/1/6 80/1/6
f 81/1/6 82/1/6 83/1/6
f 83/1/6 82/1/6 84/1/6
f 85/2/6 86/2/6 87/2/6
f 87/2/6 86/2/6 88/2/6
f 88/2/6 86/2/6 89/2/6
f 89/2/6 86/2/6 90/2/6
f 90/2/6 86/2/6 91/2/6
f 91/2/6 86/2/6 92/2/6
f 88/2/6 89/2/6 93/2/6
f 93/2/6 89/2/6 94/2/6
f 90/2/6 91/2/6 95/2/6
f 95/2/6 91/2/6 96/2/6
f 97/2/6 98/2/6 103/2/6
f 103/2/6 98/2/6 104/2/6
f 99/2/6 100/2/6 105/2/6
f 105/2/6 100/2/6 106/2/6
f 101/2/6 102/2/6 107/2/6
f 107/2/6 102/2/6 108/2/6
